Session 1: Introduction to R
…
---
## R &mdash; dplyr

```r
library(tidyverse)

x <- read_csv("example_data/VNL_Women_2021.csv")
x
```

```
## # A tibble: 16 × 36
##    Team   Status N_sets_played Sets_won Points_won SO_TOT SO_JUMP
##    <chr>  <chr>          <dbl>    <dbl>      <dbl>  <dbl>   <dbl>
##  1 Belgi… Chall…            61     44.3       49     60.8    63.6
##  2 Brazil Core              52     80.8       56.8   71.3    74.3
##  3 Canada Chall…            56     30.4       45.4   54.1    54.9
##  4 China  Core              56     62.5       52.1   62.7    76.1
##  5 Domin… Chall…            59     57.6       50.2   63.1    67  
##  6 Germa… Core              54     40.7       48.8   60      55.2
##  7 Italy  Core              59     40.7       48.7   62.8    65.2
##  8 Japan  Core              54     66.7       52.8   66.1    69.9
##  9 Korea  Core              56     28.6       47.2   58.3    61.3
## 10 Nethe… Core              56     53.6       51     64.6    71.6
## # … with 6 more rows, and 29 more variables: SO_FLOAT <dbl>,
## #   mod_SO <dbl>, EXP_SO <dbl>, R_POS <dbl>, FBSO <dbl>,
## #   OPP_FBSO <dbl>, KILL <dbl>, OPP_KILL <dbl>, EFF <dbl>,
## #   TRANS_KILL <dbl>, TRANS_OPP_KILL <dbl>, TRANS_KILL_BP <dbl>,
## #   TRANS_EFF <dbl>, REC_ATT_KILL <dbl>, REC_ATT_EFF <dbl>,
## #   R_POS_KILL <dbl>, BP_TOT <dbl>, BP_JUMP <dbl>,
## #   BP_FLOAT <dbl>, mod_BP <dbl>, EXP_BP <dbl>, ACE <dbl>, …
```
…
---
## R &mdash; dplyr

Selecting columns (`select`)

```r
x %>% select(Team, N_sets_played, Sets_won)
```

```
## # A tibble: 16 × 3
##    Team               N_sets_played Sets_won
##    <chr>                      <dbl>    <dbl>
##  1 Belgium                       61     44.3
##  2 Brazil                        52     80.8
##  3 Canada                        56     30.4
##  4 China                         56     62.5
##  5 Dominican Republic            59     57.6
##  6 Germany                       54     40.7
##  7 Italy                         59     40.7
##  8 Japan                         54     66.7
##  9 Korea                         56     28.6
## 10 Netherlands                   56     53.6
## # … with 6 more rows
```

---
## R &mdash; dplyr

Renaming while selecting (`select`)

```r
x %>% select(Team, Played = N_sets_played, Won = Sets_won)
```

```
## # A tibble: 16 × 3
##    Team               Played   Won
##    <chr>               <dbl> <dbl>
##  1 Belgium                61  44.3
##  2 Brazil                 52  80.8
##  3 Canada                 56  30.4
##  4 China                  56  62.5
##  5 Dominican Republic     59  57.6
##  6 Germany                54  40.7
##  7 Italy                  59  40.7
##  8 Japan                  54  66.7
##  9 Korea                  56  28.6
## 10 Netherlands            56  53.6
## # … with 6 more rows
```

---
## R &mdash; dplyr

Just renaming, keeping all columns (`rename`)

```r
x %>% rename(Played = N_sets_played, Won = Sets_won)
```

```
## # A tibble: 16 × 36
##    Team    Status Played   Won Points_won SO_TOT SO_JUMP SO_FLOAT
##    <chr>   <chr>   <dbl> <dbl>      <dbl>  <dbl>   <dbl>    <dbl>
##  1 Belgium Chall…     61  44.3       49     60.8    63.6     60.2
##  2 Brazil  Core       52  80.8       56.8   71.3    74.3     70.8
##  3 Canada  Chall…     56  30.4       45.4   54.1    54.9     54  
##  4 China   Core       56  62.5       52.1   62.7    76.1     61.4
##  5 Domini… Chall…     59  57.6       50.2   63.1    67       62.4
##  6 Germany Core       54  40.7       48.8   60      55.2     60.7
##  7 Italy   Core       59  40.7       48.7   62.8    65.2     62.5
##  8 Japan   Core       54  66.7       52.8   66.1    69.9     65.5
##  9 Korea   Core       56  28.6       47.2   58.3    61.3     57.8
## 10 Nether… Core       56  53.6       51     64.6    71.6     63.5
## # … with 6 more rows, and 28 more variables: mod_SO <dbl>,
## #   EXP_SO <dbl>, R_POS <dbl>, FBSO <dbl>, OPP_FBSO <dbl>,
## #   KILL <dbl>, OPP_KILL <dbl>, EFF <dbl>, TRANS_KILL <dbl>,
## #   TRANS_OPP_KILL <dbl>, TRANS_KILL_BP <dbl>, TRANS_EFF <dbl>,
## #   REC_ATT_KILL <dbl>, REC_ATT_EFF <dbl>, R_POS_KILL <dbl>,
## #   BP_TOT <dbl>, BP_JUMP <dbl>, BP_FLOAT <dbl>, mod_BP <dbl>,
## #   EXP_BP <dbl>, ACE <dbl>, BLOCK_BP <dbl>, …
```

---
## R &mdash; dplyr

Adding or changing columns (`mutate`)

```r
x %>% mutate(Sets_won = N_sets_played / 100,
             Team_abbrev = str_to_upper(str_sub(Team, 1, 3))) %>%
    select(Team, Team_abbrev, N_sets_played, Sets_won)
```

```
## # A tibble: 16 × 4
##    Team               Team_abbrev N_sets_played Sets_won
##    <chr>              <chr>               <dbl>    <dbl>
##  1 Belgium            BEL                    61     0.61
##  2 Brazil             BRA                    52     0.52
##  3 Canada             CAN                    56     0.56
##  4 China              CHI                    56     0.56
##  5 Dominican Republic DOM                    59     0.59
##  6 Germany            GER                    54     0.54
##  7 Italy              ITA                    59     0.59
##  8 Japan              JAP                    54     0.54
##  9 Korea              KOR                    56     0.56
## 10 Netherlands        NET                    56     0.56
## # … with 6 more rows
```

---
## R &mdash; dplyr

Ordering rows (`arrange`)

```r
x %>% arrange(N_sets_played) %>%
    select(Team, N_sets_played, Sets_won)
```

```
## # A tibble: 16 × 3
##    Team        N_sets_played Sets_won
##    <chr>               <dbl>    <dbl>
##  1 USA                    49     85.7
##  2 Thailand               51     21.6
##  3 Brazil                 52     80.8
##  4 Germany                54     40.7
##  5 Japan                  54     66.7
##  6 Serbia                 55     36.4
##  7 Canada                 56     30.4
##  8 China                  56     62.5
##  9 Korea                  56     28.6
## 10 Netherlands            56     53.6
## # … with 6 more rows
```

---
## R &mdash; dplyr

Or in descending order with `desc`

```r
x %>% arrange(desc(N_sets_played)) %>%
    select(Team, N_sets_played, Sets_won)
```

```
## # A tibble: 16 × 3
##    Team               N_sets_played Sets_won
##    <chr>                      <dbl>    <dbl>
##  1 Belgium                       61     44.3
##  2 Poland                        60     40  
##  3 Dominican Republic            59     57.6
##  4 Italy                         59     40.7
##  5 Turkey                        58     62.1
##  6 Canada                        56     30.4
##  7 China                         56     62.5
##  8 Korea                         56     28.6
##  9 Netherlands                   56     53.6
## 10 Russia                        56     53.6
## # … with 6 more rows
```
…
(compare with `mean(x$N_sets_played)` and `max(x$Sets_won)`)

---
## R &mdash; dplyr

Groups (`group_by`)

```r
x %>% group_by(Status)
```

```
## # A tibble: 16 × 36
## # Groups:   Status [2]
##    Team   Status N_sets_played Sets_won Points_won SO_TOT SO_JUMP
##    <chr>  <chr>          <dbl>    <dbl>      <dbl>  <dbl>   <dbl>
##  1 Belgi… Chall…            61     44.3       49     60.8    63.6
##  2 Brazil Core              52     80.8       56.8   71.3    74.3
##  3 Canada Chall…            56     30.4       45.4   54.1    54.9
##  4 China  Core              56     62.5       52.1   62.7    76.1
##  5 Domin… Chall…            59     57.6       50.2   63.1    67  
##  6 Germa… Core              54     40.7       48.8   60      55.2
##  7 Italy  Core              59     40.7       48.7   62.8    65.2
##  8 Japan  Core              54     66.7       52.8   66.1    69.9
##  9 Korea  Core              56     28.6       47.2   58.3    61.3
## 10 Nethe… Core              56     53.6       51     64.6    71.6
## # … with 6 more rows, and 29 more variables: SO_FLOAT <dbl>,
## #   mod_SO <dbl>, EXP_SO <dbl>, R_POS <dbl>, FBSO <dbl>,
## #   OPP_FBSO <dbl>, KILL <dbl>, OPP_KILL <dbl>, EFF <dbl>,
## #   TRANS_KILL <dbl>, TRANS_OPP_KILL <dbl>, TRANS_KILL_BP <dbl>,
## #   TRANS_EFF <dbl>, REC_ATT_KILL <dbl>, REC_ATT_EFF <dbl>,
## #   R_POS_KILL <dbl>, BP_TOT <dbl>, BP_JUMP <dbl>,
## #   BP_FLOAT <dbl>, mod_BP <dbl>, EXP_BP <dbl>, ACE <dbl>, …
```
…
